Predictive Discussion 5
…
Aggregate Time Series for Plotting

## # A tsibble: 540 x 4 [1M]
## # Key:       Stock, Sector [9]
##        Date Stock        Sector       Value
##       <mth> <chr*>       <chr*>       <dbl>
##  1 2018 Jan <aggregated> <aggregated>  308.
##  2 2018 Feb <aggregated> <aggregated>  296.
##  3 2018 Mar <aggregated> <aggregated>  269.
##  4 2018 Apr <aggregated> <aggregated>  286.
##  5 2018 May <aggregated> <aggregated>  301.
##  6 2018 Jun <aggregated> <aggregated>  310.
##  7 2018 Jul <aggregated> <aggregated>  288.
##  8 2018 Aug <aggregated> <aggregated>  303.
##  9 2018 Sep <aggregated> <aggregated>  283.
## 10 2018 Oct <aggregated> <aggregated>  266.
## #  with 530 more rows
…
